Misc/waveform.vcd
$date
	Fri Nov 17 15:49:32 2023
$end
$version
	ModelSim Version 10.5b
$end
$timescale
	1ns
$end

$scope module adder_tb $end
$var reg 1 ! a $end
$var reg 1 " b $end
$var reg 1 # cin $end
$var reg 1 $ sum $end
$var reg 1 % cout $end

$scope module inst1 $end
$var wire 1 & a $end
$var wire 1 ' b $end
$var wire 1 ( cin $end
$var reg 1 ) sum $end
$var reg 1 * cout $end
$upscope $end
$upscope $end
$enddefinitions $end
#0
$dumpvars
1!
0"
0#
1$
0%
1)
0*
1&
0'
0(
$end
#10
1#
1(
0)
1*
1%
0$
#20
1"
0#
1'
0(
#30
1#
1(
1)
1$
#40
0"
0#
0'
0(
0*
0%
#50
1#
1(
0)
1*
1%
0$
#60
1"
0#
1'
0(
#70
1#
1(
1)
1$
